{
  "capturedAt": "2026-06-17T16:02:09.618Z",
  "method": "GET",
  "path": "/api/deals?page=1&pageSize=3",
  "baseUrl": "http://localhost:8000",
  "status": 200,
  "statusText": "OK",
  "note": null,
  "requestBody": null,
  "response": {
    "data": [
      {
        "id": "cmqean3vk0007c2lsjwd676oh",
        "pospId": "cmqdxv0bh0028c2lcxyx4t5yh",
        "customerId": null,
        "customerName": "Kavita Rao",
        "policy": "Travel",
        "productLine": null,
        "productSubType": null,
        "insurer": null,
        "sum": 2100000,
        "premium": 15000,
        "coa": 3900,
        "coaType": "AMOUNT",
        "coaAmount": 0,
        "margin": 900,
        "status": "W",
        "expected": "2026-05-04T18:30:00.000Z",
        "proposal": "PRP-22404",
        "policyNo": "POL-99004",
        "issued": "2025-05-04T18:30:00.000Z",
        "remarks": "Seed deal #5 — Warm follow-up",
        "zoneId": "zone-west",
        "regionId": "region-mh",
        "areaId": "area-mumbai",
        "districtId": null,
        "createdAt": "2026-06-14T21:25:51.582Z",
        "updatedAt": "2026-06-17T09:59:00.836Z"
      },
      {
        "id": "cmqean3vk0008c2lszu7rsdws",
        "pospId": "cmqdxv0bz0029c2lcwywpwt8h",
        "customerId": null,
        "customerName": "Mohan Iyer",
        "policy": "Home",
        "productLine": null,
        "productSubType": null,
        "insurer": null,
        "sum": 2500000,
        "premium": 17500,
        "coa": 4600,
        "coaType": "AMOUNT",
        "coaAmount": 0,
        "margin": 1050,
        "status": "C",
        "expected": "2026-06-05T18:30:00.000Z",
        "proposal": "PRP-22405",
        "policyNo": "",
        "issued": null,
        "remarks": "Seed deal #6 — Cold lead",
        "zoneId": "zone-west",
        "regionId": "region-mh",
        "areaId": "area-mumbai",
        "districtId": null,
        "createdAt": "2026-06-14T21:25:51.582Z",
        "updatedAt": "2026-06-17T09:59:00.847Z"
      },
      {
        "id": "cmqean3vk0009c2lswaxol9h1",
        "pospId": "cmqdxv0cb002ac2lcizc19yf4",
        "customerId": null,
        "customerName": "Sneha Bhatia",
        "policy": "ULIP",
        "productLine": null,
        "productSubType": null,
        "insurer": null,
        "sum": 2900000,
        "premium": 20000,
        "coa": 5300,
        "coaType": "AMOUNT",
        "coaAmount": 0,
        "margin": 1200,
        "status": "H",
        "expected": "2026-07-06T18:30:00.000Z",
        "proposal": "PRP-22406",
        "policyNo": "",
        "issued": null,
        "remarks": "Seed deal #7 — Hot prospect",
        "zoneId": "zone-west",
        "regionId": "region-mh",
        "areaId": "area-mumbai",
        "districtId": null,
        "createdAt": "2026-06-14T21:25:51.582Z",
        "updatedAt": "2026-06-17T09:59:00.858Z"
      }
    ],
    "meta": {
      "page": 1,
      "pageSize": 3,
      "total": 120,
      "totalPages": 40
    }
  }
}