{
  "capturedAt": "2026-06-17T16:02:09.639Z",
  "method": "GET",
  "path": "/api/leads?page=1&pageSize=3",
  "baseUrl": "http://localhost:8000",
  "status": 200,
  "statusText": "OK",
  "note": null,
  "requestBody": null,
  "response": {
    "data": [
      {
        "id": "cmqean4wd006oc2lswfw35xbu",
        "customerId": "cmqdxv08u0023c2lczl1dwobz",
        "assignedToId": "cmqdxuzm7000gc2lcdi2oznun",
        "product": "TRAVEL",
        "productSubType": "Family Floater",
        "estimatedPremium": 51500,
        "estimatedSum": 5250000,
        "closureTimeline": "LATER",
        "expectedCloseDate": "2026-12-15T18:30:00.000Z",
        "status": "LOST",
        "source": "CAMPAIGN",
        "remarks": "Seed lead #60",
        "convertedToDealId": null,
        "convertedAt": null,
        "zoneId": null,
        "regionId": null,
        "areaId": null,
        "districtId": null,
        "createdAt": "2026-06-14T21:25:52.909Z",
        "updatedAt": "2026-06-14T21:25:52.909Z",
        "customer": {
          "id": "cmqdxv08u0023c2lczl1dwobz",
          "name": "Vikram Patel",
          "email": "vikram.patel.58@example.com",
          "mobile": "9810000058",
          "alternateMobile": null,
          "dateOfBirth": null,
          "panNumber": null,
          "aadharNumber": null,
          "stateId": null,
          "stateName": "Punjab",
          "districtId": null,
          "districtName": null,
          "cityId": null,
          "cityName": "Chandigarh",
          "address": null,
          "pincode": null,
          "kycStatus": "PENDING",
          "source": "ONLINE",
          "createdAt": "2026-06-14T15:28:05.118Z",
          "updatedAt": "2026-06-14T15:28:05.118Z"
        },
        "assignedTo": {
          "id": "cmqdxuzm7000gc2lcdi2oznun",
          "userId": "cmqdxuzf50005c2lc8x3cmnxw",
          "name": "District Manager",
          "employeeCode": "EMP-D001",
          "designation": "DM",
          "managerId": "cmqdxuzlq000ec2lc5ap4pdg0",
          "territory": "Mumbai South",
          "mobile": "9100000005",
          "email": "dm@roinet.com",
          "joiningDate": "2022-01-15T00:00:00.000Z",
          "zoneId": "zone-west",
          "zoneName": "Mumbai South",
          "regionId": "region-mh",
          "regionName": null,
          "areaId": "area-mumbai",
          "areaName": null,
          "status": "ACTIVE",
          "createdAt": "2026-06-14T15:28:04.304Z",
          "updatedAt": "2026-06-17T09:58:58.046Z"
        }
      },
      {
        "id": "cmqean4vz006mc2lso0q99mhc",
        "customerId": "cmqdxv08d0022c2lclzrt4l3b",
        "assignedToId": "cmqdxuzlq000ec2lc5ap4pdg0",
        "product": "MARINE",
        "productSubType": "Individual",
        "estimatedPremium": 50000,
        "estimatedSum": 5000000,
        "closureTimeline": "T_PLUS_2",
        "expectedCloseDate": "2026-11-14T18:30:00.000Z",
        "status": "WON",
        "source": "ONLINE",
        "remarks": "Seed lead #59",
        "convertedToDealId": null,
        "convertedAt": null,
        "zoneId": null,
        "regionId": null,
        "areaId": null,
        "districtId": null,
        "createdAt": "2026-06-14T21:25:52.895Z",
        "updatedAt": "2026-06-14T21:25:52.895Z",
        "customer": {
          "id": "cmqdxv08d0022c2lclzrt4l3b",
          "name": "Lakshmi Kumar",
          "email": "lakshmi.kumar.57@example.com",
          "mobile": "9810000057",
          "alternateMobile": null,
          "dateOfBirth": null,
          "panNumber": null,
          "aadharNumber": null,
          "stateId": null,
          "stateName": "Uttar Pradesh",
          "districtId": null,
          "districtName": null,
          "cityId": null,
          "cityName": "Lucknow",
          "address": null,
          "pincode": null,
          "kycStatus": "PENDING",
          "source": "WALK_IN",
          "createdAt": "2026-06-14T15:28:05.102Z",
          "updatedAt": "2026-06-14T15:28:05.102Z"
        },
        "assignedTo": {
          "id": "cmqdxuzlq000ec2lc5ap4pdg0",
          "userId": "cmqdxuzbn0004c2lc27v6h89x",
          "name": "Area Sales Manager",
          "employeeCode": "EMP-A001",
          "designation": "ASM",
          "managerId": "cmqdxuzl9000cc2lcm90qsdgc",
          "territory": "Mumbai Metro",
          "mobile": "9100000004",
          "email": "asm@roinet.com",
          "joiningDate": "2022-01-15T00:00:00.000Z",
          "zoneId": "zone-west",
          "zoneName": "Mumbai Metro",
          "regionId": "region-mh",
          "regionName": null,
          "areaId": "area-mumbai",
          "areaName": null,
          "status": "ACTIVE",
          "createdAt": "2026-06-14T15:28:04.286Z",
          "updatedAt": "2026-06-17T09:58:58.031Z"
        }
      },
      {
        "id": "cmqean4vk006kc2lsbhuunzyr",
        "customerId": "cmqdxv0800021c2lcyyror10b",
        "assignedToId": "cmqdxuzl9000cc2lcm90qsdgc",
        "product": "PROPERTY",
        "productSubType": "Family Floater",
        "estimatedPremium": 48500,
        "estimatedSum": 4750000,
        "closureTimeline": "T_PLUS_1",
        "expectedCloseDate": "2026-10-13T18:30:00.000Z",
        "status": "PROPOSAL_SENT",
        "source": "WALK_IN",
        "remarks": "Seed lead #58",
        "convertedToDealId": null,
        "convertedAt": null,
        "zoneId": null,
        "regionId": null,
        "areaId": null,
        "districtId": null,
        "createdAt": "2026-06-14T21:25:52.881Z",
        "updatedAt": "2026-06-14T21:25:52.881Z",
        "customer": {
          "id": "cmqdxv0800021c2lcyyror10b",
          "name": "Ashok Pandey",
          "email": "ashok.pandey.56@example.com",
          "mobile": "9810000056",
          "alternateMobile": null,
          "dateOfBirth": null,
          "panNumber": null,
          "aadharNumber": null,
          "stateId": null,
          "stateName": "Rajasthan",
          "districtId": null,
          "districtName": null,
          "cityId": null,
          "cityName": "Jaipur",
          "address": null,
          "pincode": null,
          "kycStatus": "VERIFIED",
          "source": "REFERRAL",
          "createdAt": "2026-06-14T15:28:05.089Z",
          "updatedAt": "2026-06-14T15:28:05.089Z"
        },
        "assignedTo": {
          "id": "cmqdxuzl9000cc2lcm90qsdgc",
          "userId": "cmqdxuz840003c2lc22ahvfsc",
          "name": "Regional Head MH",
          "employeeCode": "EMP-R001",
          "designation": "RH",
          "managerId": "cmqdxuzkp000ac2lc6kg0ksnw",
          "territory": "Maharashtra",
          "mobile": "9100000003",
          "email": "regional@roinet.com",
          "joiningDate": "2022-01-15T00:00:00.000Z",
          "zoneId": "zone-west",
          "zoneName": "Maharashtra",
          "regionId": "region-mh",
          "regionName": null,
          "areaId": null,
          "areaName": null,
          "status": "ACTIVE",
          "createdAt": "2026-06-14T15:28:04.269Z",
          "updatedAt": "2026-06-17T09:58:58.017Z"
        }
      }
    ],
    "meta": {
      "page": 1,
      "pageSize": 3,
      "total": 60,
      "totalPages": 20
    }
  }
}