{
  "capturedAt": "2026-06-19T16:44:35.917Z",
  "method": "GET",
  "path": "/api/posp?page=1&pageSize=3",
  "baseUrl": "http://localhost:8000",
  "status": 200,
  "statusText": "OK",
  "note": null,
  "requestBody": null,
  "response": {
    "data": [
      {
        "id": "cmqi24mem00m9c224o5lxqdxv",
        "externalId": "120538",
        "gcdCode": "GIDROINET2002649",
        "name": "SHASHIKALA SINGH",
        "code": "CSP036019",
        "mobile": "8172843908",
        "email": "kvp899@gmail.com",
        "joined": "2026-04-09T14:47:45.000Z",
        "active": true,
        "asmId": null,
        "lastBusinessAt": null,
        "autoInactive": false,
        "region": null,
        "zoneId": null,
        "regionId": null,
        "areaId": null,
        "districtId": "200",
        "stateId": "7",
        "cityId": "1323",
        "createdAt": "2026-06-17T12:38:36.910Z",
        "updatedAt": "2026-06-19T16:08:13.568Z"
      },
      {
        "id": "cmqi24m9k00m6c224gutjb6t1",
        "externalId": "306853",
        "gcdCode": "GIDROINET2002646",
        "name": "MOHMMAD ARIF ANSARI",
        "code": "CSP156532",
        "mobile": "8756643913",
        "email": "sameerahmad0011@gmail.com",
        "joined": "2026-04-09T12:47:11.000Z",
        "active": true,
        "asmId": null,
        "lastBusinessAt": null,
        "autoInactive": false,
        "region": null,
        "zoneId": null,
        "regionId": null,
        "areaId": null,
        "districtId": "175",
        "stateId": "7",
        "cityId": "1132",
        "createdAt": "2026-06-17T12:38:36.728Z",
        "updatedAt": "2026-06-19T16:08:13.484Z"
      },
      {
        "id": "cmqi24m3w00m3c224hi152bx6",
        "externalId": "151744",
        "gcdCode": "GIDROINET2002353",
        "name": "IMDADUL HOQUE",
        "code": "CSP045746",
        "mobile": "8811051725",
        "email": "imdadul956@gmail.com",
        "joined": "2026-04-06T19:00:17.000Z",
        "active": true,
        "asmId": null,
        "lastBusinessAt": null,
        "autoInactive": false,
        "region": null,
        "zoneId": null,
        "regionId": null,
        "areaId": null,
        "districtId": "513",
        "stateId": "11",
        "cityId": "1531",
        "createdAt": "2026-06-17T12:38:36.524Z",
        "updatedAt": "2026-06-19T16:08:13.400Z"
      }
    ],
    "meta": {
      "page": 1,
      "pageSize": 3,
      "total": 414,
      "totalPages": 138
    }
  }
}